{
  "lessons": [
    {
      "slug": "3051",
      "introduction": [
        "In this lesson, we will be setting up our development environment. We will be using Visual Studio Code as our code editor and Node.js as our runtime environment. You will be guided to create a GitHub account and install the GitHub Desktop application. We will be using these tools to build our first Web3 application. Let's get started!"
      ],
      "links": [],
      "videoHeading": "",
      "youtubeId": "",
      "successComponent": false,
      "success": {
        "criteria": "",
        "text": ""
      },
      "assignmentComponent": true,
      "markdownComponent": false
    },
    {
      "slug": "3052",
      "introduction": [
        "In this lesson, lets deploy a simple web application that allows you to connect your wallet and view the amount of ADA you have in your wallet. Even though this is a simple example, it will give you a good idea on how to build a web application that interacts with the Cardano blockchain, and how to deploy it."
      ],
      "links": [],
      "videoHeading": "",
      "youtubeId": "",
      "successComponent": false,
      "success": {
        "criteria": "",
        "text": ""
      },
      "assignmentComponent": true,
      "markdownComponent": false
    },
    {
      "slug": "3053",
      "introduction": [
        "In this lesson, we will use Mesh's React component and hooks to interact with user's wallet."
      ],
      "links": [],
      "videoHeading": "",
      "youtubeId": "",
      "successComponent": false,
      "success": {
        "criteria": "",
        "text": ""
      },
      "assignmentComponent": true,
      "markdownComponent": false
    },
    {
      "slug": "3054",
      "introduction": [
        "In this lesson, we will learn to build simple transaction to send ADA, and transactions that lock and redeem assets to and from script."
      ],
      "links": [],
      "videoHeading": "",
      "youtubeId": "",
      "successComponent": false,
      "success": {
        "criteria": "",
        "text": ""
      },
      "assignmentComponent": true,
      "markdownComponent": false
    },
    {
      "slug": "3055",
      "introduction": [
        "In this lesson, we will learn to build interface to interact with these transactions."
      ],
      "links": [],
      "videoHeading": "",
      "youtubeId": "",
      "successComponent": false,
      "success": {
        "criteria": "",
        "text": ""
      },
      "assignmentComponent": true,
      "markdownComponent": false
    }
  ]
}
